%YAML 1.1
%TAG !u! tag:unity3d.com,2011:
--- !u!114 &11400000
MonoBehaviour:
  m_ObjectHideFlags: 0
  m_CorrespondingSourceObject: {fileID: 0}
  m_PrefabInstance: {fileID: 0}
  m_PrefabAsset: {fileID: 0}
  m_GameObject: {fileID: 0}
  m_Enabled: 1
  m_EditorHideFlags: 0
  m_Script: {fileID: 11500000, guid: 18cf3355186c2d047894268208055197, type: 3}
  m_Name: LevelSettings
  m_EditorClassIdentifier: 
  minAmountOfRooms: 7
  maxAmountOfRooms: 14
  roomPrefabs:
  - {fileID: 5035268443641263307, guid: c654793ad51461c4e9971eddbfca9014, type: 3}
  - {fileID: 5035268443641263307, guid: e43b9460be05b314496d5ff52781f665, type: 3}
  - {fileID: 5035268443641263307, guid: 2b0337cb8ae4d1145b155f1e5c3492b0, type: 3}
  - {fileID: 5035268443641263307, guid: ac2b02b885773e242953e83773307679, type: 3}
  - {fileID: 5035268443641263307, guid: c0dfa46549e15c449a33470ebc4c3f37, type: 3}
  - {fileID: 5035268443641263307, guid: 8fc2db31bd32b514e84b82e8cf92d99d, type: 3}
  startRoomPrefab: {fileID: 5035268443641263307, guid: 5c0db80692cd55f42ad163aff36a2fdc, type: 3}
  bossRoomPrefab: {fileID: 5035268443641263307, guid: 2df2ea9f1cba14c4cafc2c37419deb67, type: 3}
  goldenRoomPrefab: {fileID: 5035268443641263307, guid: 64876660423b03741a6959310c08d965, type: 3}
